POINT (124.78466772659182 370.08208158406495)

LINESTRING (124.78466772659182 370.08208158406495, 165.73855661548072 358.38097047295383, 116.98392698585107 321.32745195443533)

LINESTRING (165.73855661548072 358.38097047295383, 279.82438994881403 357.40587788036123, 333.45448254140666 339.85421121369455, 336.10139060043144 363.397357653589)

POINT (406.58642698585106 421.7619889914723)

POINT (295.4258714302955 439.313655658139)

LINESTRING (279.82438994881403 357.40587788036123, 295.4258714302955 439.313655658139)

LINESTRING (336.10139060043144 363.397357653589, 390.009852911777 334.9787482507316, 401.7109640228881 343.7545815840649, 406.58642698585106 421.7619889914723)

LINESTRING (401.7109640228881 343.7545815840649, 562.6012418006659 254.0460630655464, 578.2976513696817 236.63580433352135, 587.3174925433873 191.5071699679032)

LINESTRING (578.2976513696817 236.63580433352135, 630.1172786396439 286.11722344383907)

LINESTRING (562.6012418006659 254.0460630655464, 573.3762499826045 307.1789033891714)